\relax 
\providecommand\hyper@newdestlabel[2]{}
\providecommand\HyperFirstAtBeginDocument{\AtBeginDocument}
\HyperFirstAtBeginDocument{\ifx\hyper@anchor\@undefined
\global\let\oldcontentsline\contentsline
\gdef\contentsline#1#2#3#4{\oldcontentsline{#1}{#2}{#3}}
\global\let\oldnewlabel\newlabel
\gdef\newlabel#1#2{\newlabelxx{#1}#2}
\gdef\newlabelxx#1#2#3#4#5#6{\oldnewlabel{#1}{{#2}{#3}}}
\AtEndDocument{\ifx\hyper@anchor\@undefined
\let\contentsline\oldcontentsline
\let\newlabel\oldnewlabel
\fi}
\fi}
\global\let\hyper@last\relax 
\gdef\HyperFirstAtBeginDocument#1{#1}
\providecommand\HyField@AuxAddToFields[1]{}
\providecommand\HyField@AuxAddToCoFields[2]{}
\@writefile{toc}{\contentsline {section}{\numberline {1}Zealeov}{1}{section.1}}
\@writefile{toc}{\contentsline {subsection}{\numberline {1.1}Syntaxs}{1}{subsection.1.1}}
\@writefile{toc}{\contentsline {subsection}{\numberline {1.2}CLI}{1}{subsection.1.2}}
\@writefile{toc}{\contentsline {subsubsection}{\numberline {1.2.1}Options}{1}{subsubsection.1.2.1}}
\@writefile{toc}{\contentsline {subsection}{\numberline {1.3}DataBase}{2}{subsection.1.3}}
\@writefile{toc}{\contentsline {subsection}{\numberline {1.4}Logging}{2}{subsection.1.4}}
\@writefile{toc}{\contentsline {subsection}{\numberline {1.5}Documentation}{2}{subsection.1.5}}
\@writefile{toc}{\contentsline {section}{\numberline {2}Behaviors}{2}{section.2}}
\@writefile{toc}{\contentsline {subsection}{\numberline {2.1}Specificity}{2}{subsection.2.1}}
\@writefile{toc}{\contentsline {subsection}{\numberline {2.2}Requirement}{3}{subsection.2.2}}
\@writefile{toc}{\contentsline {subsection}{\numberline {2.3}Version}{3}{subsection.2.3}}
\@writefile{toc}{\contentsline {subsection}{\numberline {2.4}File}{3}{subsection.2.4}}
\@writefile{toc}{\contentsline {section}{\numberline {3}Licence and Copyright}{3}{section.3}}
\@writefile{toc}{\contentsline {section}{\numberline {4}Author}{4}{section.4}}
